…
|br|

.. image:: ../images/treePlotter_15.png 
  :width: 1200

If a multiPhylo contains multiple topologies, you can easily visualize node support with **treePlotter** using the *clade_support* option.

.. code-block:: r

  tree_clades <- getTreeClades(myTrees,return_counts = TRUE)
  tree_clades
  
    # A tibble: 22 x 3
     Clade                                                                                                                             Count Trees                                                 
     <chr>                                                                                                                             <int> <chr>                                                 
   1 Species_A;Species_B;Species_D;Species_E;Species_F;Species_G;Species_I;Species_J;Species_K;Species_L;Species_M;Species_N;Species_O     5 Gene_1.nwk;Gene_2.nwk;Gene_3.nwk;Gene_4.nwk;Gene_5.nwk
   2 Species_A;Species_F                                                                                                                   5 Gene_1.nwk;Gene_2.nwk;Gene_3.nwk;Gene_4.nwk;Gene_5.nwk
   3 Species_C;Species_H                                                                                                                   5 Gene_1.nwk;Gene_2.nwk;Gene_3.nwk;Gene_4.nwk;Gene_5.nwk
   4 Species_G;Species_N                                                                                                                   5 Gene_1.nwk;Gene_2.nwk;Gene_3.nwk;Gene_4.nwk;Gene_5.nwk
   5 Species_J;Species_M                                                                                                                   5 Gene_1.nwk;Gene_2.nwk;Gene_3.nwk;Gene_4.nwk;Gene_5.nwk
   6 Species_K;Species_L                                                                                                                   5 Gene_1.nwk;Gene_2.nwk;Gene_3.nwk;Gene_4.nwk;Gene_5.nwk
   7 Species_A;Species_F;Species_K;Species_L                                                                                               4 Gene_1.nwk;Gene_2.nwk;Gene_3.nwk;Gene_5.nwk           
   8 Species_B;Species_D;Species_O                                                                                                         4 Gene_1.nwk;Gene_2.nwk;Gene_3.nwk;Gene_5.nwk           
   9 Species_B;Species_O                                                                                                                   4 Gene_1.nwk;Gene_2.nwk;Gene_3.nwk;Gene_4.nwk           
  10 Species_G;Species_I;Species_J;Species_M;Species_N                                                                                     4 Gene_1.nwk;Gene_2.nwk;Gene_3.nwk;Gene_4.nwk           
  # ... with 12 more rows
…
