…
  # Script: Rboretum/docs/content/Doc_Function_Scripts/getAlignmentSignal.R

  library(Rboretum)
  sourceRboretum()
  
  # Set path to alignment data
  myAlignmentFile <- rb_align1_path
  mySpecies <- getAlignmentSpecies(myAlignmentFile)
  mySubspecies <- semiVector(mySpecies)[1:5]
  myAlignmentDir <- rb_alignment_dir
  
  # Get alignment signal information for a single alignment
  getAlignmentSignal(alignment_path = myAlignmentFile)

  # A tibble: 1,551 x 14
     Alignment_Positi~ All_Site_Bases Site_Pattern Non_Base_Taxa Non_Base_Count Singleton_Taxa Singleton_Count Gap_Taxa Split_1                           Split_2                           Split_3 Split_4 Split_5 Alignment_Name
                 <dbl> <chr>          <chr>        <chr>                  <dbl> <chr>                    <dbl> <chr>    <chr>                             <chr>                             <chr>     <dbl>   <dbl> <chr>         
   1                 1 C              invariant    NA                         0 NA                           0 NA       NA                                NA                                NA           NA      NA Gene_1.phy    
   2                 2 C              invariant    NA                         0 NA                           0 NA       NA                                NA                                NA           NA      NA Gene_1.phy    
   3                 3 C;N;T          biallelic    Species_D                  1 NA                           0 NA       Species_A;Species_F               Species_B;Species_C;Species_E;Sp~ NA           NA      NA Gene_1.phy    
   4                 4 T              invariant    NA                         0 NA                           0 NA       NA                                NA                                NA           NA      NA Gene_1.phy    
   5                 5 C;T            biallelic    NA                         0 NA                           0 NA       Species_C;Species_H               Species_A;Species_B;Species_D;Sp~ NA           NA      NA Gene_1.phy    
   6                 6 T              invariant    NA                         0 NA                           0 NA       NA                                NA                                NA           NA      NA Gene_1.phy    
   7                 7 C;G            singleton    NA                         0 Species_H                    1 NA       NA                                NA                                NA           NA      NA Gene_1.phy    
   8                 8 A;G            biallelic    NA                         0 NA                           0 NA       Species_A;Species_B;Species_D;Sp~ Species_C;Species_H               NA           NA      NA Gene_1.phy    
   9                 9 T              invariant    NA                         0 NA                           0 NA       NA                                NA                                NA           NA      NA Gene_1.phy    
  10                10 T              invariant    NA                         0 NA                           0 NA       NA                                NA                                NA           NA      NA Gene_1.phy    
  # ... with 1,541 more rows
  
  # Get alignment signal information from all .phylip files in a directory, providing new names, consider gaps as missing data
  getAlignmentSignal(alignment_path = myAlignmentDir,species_info = mySpecies,use_gaps = FALSE,suffix = ".phy",alignment_name = c('Gene_A','Gene_B','Gene_C','Gene_D','Gene_E'))

  # A tibble: 1,551 x 14
     Alignment_Positi~ All_Site_Bases Site_Pattern Non_Base_Taxa Non_Base_Count Singleton_Taxa Singleton_Count Gap_Taxa Split_1                           Split_2                           Split_3 Split_4 Split_5 Alignment_Name
                 <dbl> <chr>          <chr>        <chr>                  <dbl> <chr>                    <dbl> <chr>    <chr>                             <chr>                             <chr>     <dbl>   <dbl> <chr>         
   1                 1 C              invariant    NA                         0 NA                           0 NA       NA                                NA                                NA           NA      NA Gene_1.phy    
   2                 2 C              invariant    NA                         0 NA                           0 NA       NA                                NA                                NA           NA      NA Gene_1.phy    
   3                 3 C;N;T          biallelic    Species_D                  1 NA                           0 NA       Species_A;Species_F               Species_B;Species_C;Species_E;Sp~ NA           NA      NA Gene_1.phy    
   4                 4 T              invariant    NA                         0 NA                           0 NA       NA                                NA                                NA           NA      NA Gene_1.phy    
   5                 5 C;T            biallelic    NA                         0 NA                           0 NA       Species_C;Species_H               Species_A;Species_B;Species_D;Sp~ NA           NA      NA Gene_1.phy    
   6                 6 T              invariant    NA                         0 NA                           0 NA       NA                                NA                                NA           NA      NA Gene_1.phy    
   7                 7 C;G            singleton    NA                         0 Species_H                    1 NA       NA                                NA                                NA           NA      NA Gene_1.phy    
   8                 8 A;G            biallelic    NA                         0 NA                           0 NA       Species_A;Species_B;Species_D;Sp~ Species_C;Species_H               NA           NA      NA Gene_1.phy    
   9                 9 T              invariant    NA                         0 NA                           0 NA       NA                                NA                                NA           NA      NA Gene_1.phy    
  10                10 T              invariant    NA                         0 NA                           0 NA       NA                                NA                                NA           NA      NA Gene_1.phy    
  # ... with 1,541 more rows
  
  # Get alignment signal information from all .phylip files in a directory, providing new names, consider gaps as missing data
  getAlignmentSignal(alignment_path = myAlignmentDir,species_info = mySubspecies,use_gaps = FALSE,suffix = ".phy",alignment_name = c('Gene_A','Gene_B','Gene_C','Gene_D','Gene_E'))

  # A tibble: 9,105 x 14
     Alignment_Positi~ All_Site_Bases Site_Pattern Non_Base_Taxa Non_Base_Count Singleton_Taxa Singleton_Count Gap_Taxa Split_1                           Split_2                           Split_3 Split_4 Split_5 Alignment_Name
                 <dbl> <chr>          <chr>        <chr>                  <dbl> <chr>                    <dbl> <chr>    <chr>                             <chr>                             <chr>   <chr>     <dbl> <chr>         
   1                 1 C              invariant    NA                         0 NA                           0 NA       NA                                NA                                NA      NA           NA Gene_A        
   2                 2 C              invariant    NA                         0 NA                           0 NA       NA                                NA                                NA      NA           NA Gene_A        
   3                 3 C;N;T          biallelic    Species_D                  1 NA                           0 NA       Species_A;Species_F               Species_B;Species_C;Species_E;Sp~ NA      NA           NA Gene_A        
   4                 4 T              invariant    NA                         0 NA                           0 NA       NA                                NA                                NA      NA           NA Gene_A        
   5                 5 C;T            biallelic    NA                         0 NA                           0 NA       Species_C;Species_H               Species_A;Species_B;Species_D;Sp~ NA      NA           NA Gene_A        
   6                 6 T              invariant    NA                         0 NA                           0 NA       NA                                NA                                NA      NA           NA Gene_A        
   7                 7 C;G            singleton    NA                         0 Species_H                    1 NA       NA                                NA                                NA      NA           NA Gene_A        
   8                 8 A;G            biallelic    NA                         0 NA                           0 NA       Species_A;Species_B;Species_D;Sp~ Species_C;Species_H               NA      NA           NA Gene_A        
   9                 9 T              invariant    NA                         0 NA                           0 NA       NA                                NA                                NA      NA           NA Gene_A        
  10                10 T              invariant    NA                         0 NA                           0 NA       NA                                NA                                NA      NA           NA Gene_A        
  # ... with 9,095 more rows
…
