…
  # Create multiPhylo of trees that share a topology
  timeTrees <- c(timeTree_1,timeTree_2,timeTree_3) %>% treeNamer()

  extractNodeAges(timeTrees) %>% arrange(Clade)

  # A tibble: 42 x 3
     Clade                                                                                                                                                 Node_Age Tree_Name
     <chr>                                                                                                                                                    <dbl> <chr>    
   1 Species_A;Species_B;Species_C;Species_D;Species_E;Species_F;Species_G;Species_H;Species_I;Species_J;Species_K;Species_L;Species_M;Species_N;Species_O    110.  Tree_1   
   2 Species_A;Species_B;Species_C;Species_D;Species_E;Species_F;Species_G;Species_H;Species_I;Species_J;Species_K;Species_L;Species_M;Species_N;Species_O    110.  Tree_2   
   3 Species_A;Species_B;Species_C;Species_D;Species_E;Species_F;Species_G;Species_H;Species_I;Species_J;Species_K;Species_L;Species_M;Species_N;Species_O    110.  Tree_3   
   4 Species_A;Species_B;Species_D;Species_E;Species_F;Species_G;Species_I;Species_J;Species_K;Species_L;Species_M;Species_N;Species_O                         91.4 Tree_1   
   5 Species_A;Species_B;Species_D;Species_E;Species_F;Species_G;Species_I;Species_J;Species_K;Species_L;Species_M;Species_N;Species_O                         91.3 Tree_2   
   6 Species_A;Species_B;Species_D;Species_E;Species_F;Species_G;Species_I;Species_J;Species_K;Species_L;Species_M;Species_N;Species_O                         91.5 Tree_3   
   7 Species_A;Species_E;Species_F;Species_G;Species_I;Species_J;Species_K;Species_L;Species_M;Species_N                                                       73.1 Tree_1   
   8 Species_A;Species_E;Species_F;Species_G;Species_I;Species_J;Species_K;Species_L;Species_M;Species_N                                                       73.1 Tree_2   
   9 Species_A;Species_E;Species_F;Species_G;Species_I;Species_J;Species_K;Species_L;Species_M;Species_N                                                       73.2 Tree_3   
  10 Species_A;Species_E;Species_F;Species_K;Species_L                                                                                                         54.9 Tree_1   
  # ... with 32 more rows
…
